[
  {
    "id": "merchant-mammonite",
    "maxPoint": 10,
    "name": "skill.merchant.mammonite-name",
    "detail": "skill.merchant.mammonite-detail",
    "note": "skill.merchant.mammonite-note",
    "level": [
      {
        "lv": 1,
        "detailValues": []
      },
      {
        "lv": 2,
        "detailValues": []
      },
      {
        "lv": 3,
        "detailValues": []
      },
      {
        "lv": 4,
        "detailValues": []
      },
      {
        "lv": 5,
        "detailValues": []
      },
      {
        "lv": 6,
        "detailValues": []
      },
      {
        "lv": 7,
        "detailValues": []
      },
      {
        "lv": 8,
        "detailValues": []
      },
      {
        "lv": 9,
        "detailValues": []
      },
      {
        "lv": 10,
        "detailValues": []
      }
    ]
  },
  {
    "id": "merchant-enlarge-weight-limit",
    "maxPoint": 10,
    "name": "skill.merchant.enlarge-weight-limit-name",
    "detail": "skill.merchant.enlarge-weight-limit-detail",
    "note": "skill.merchant.enlarge-weight-limit-note",
    "level": [
      {
        "lv": 1,
        "detailValues": []
      },
      {
        "lv": 2,
        "detailValues": []
      },
      {
        "lv": 3,
        "detailValues": []
      },
      {
        "lv": 4,
        "detailValues": []
      },
      {
        "lv": 5,
        "detailValues": []
      },
      {
        "lv": 6,
        "detailValues": []
      },
      {
        "lv": 7,
        "detailValues": []
      },
      {
        "lv": 8,
        "detailValues": []
      },
      {
        "lv": 9,
        "detailValues": []
      },
      {
        "lv": 10,
        "detailValues": []
      }
    ]
  },
  {
    "id": "merchant-cart-revolution",
    "maxPoint": 1,
    "name": "skill.merchant.cart-revolution-name",
    "detail": "skill.merchant.cart-revolution-detail",
    "note": "skill.merchant.cart-revolution-note",
    "level": [
      {
        "lv": 1,
        "detailValues": []
      }
    ]
  },
  {
    "id": "merchant-full-force-swing",
    "maxPoint": 5,
    "name": "skill.merchant.full-force-swing-name",
    "detail": "skill.merchant.full-force-swing-detail",
    "note": "skill.merchant.full-force-swing-note",
    "level": [
      {
        "lv": 1,
        "detailValues": []
      },
      {
        "lv": 2,
        "detailValues": []
      },
      {
        "lv": 3,
        "detailValues": []
      },
      {
        "lv": 4,
        "detailValues": []
      },
      {
        "lv": 5,
        "detailValues": []
      }
    ]
  },
  {
    "id": "merchant-discount",
    "maxPoint": 10,
    "name": "skill.merchant.discount-name",
    "detail": "skill.merchant.discount-detail",
    "note": "skill.merchant.discount-note",
    "level": [
      {
        "lv": 1,
        "detailValues": []
      },
      {
        "lv": 2,
        "detailValues": []
      },
      {
        "lv": 3,
        "detailValues": []
      },
      {
        "lv": 4,
        "detailValues": []
      },
      {
        "lv": 5,
        "detailValues": []
      },
      {
        "lv": 6,
        "detailValues": []
      },
      {
        "lv": 7,
        "detailValues": []
      },
      {
        "lv": 8,
        "detailValues": []
      },
      {
        "lv": 9,
        "detailValues": []
      },
      {
        "lv": 10,
        "detailValues": []
      }
    ]
  },
  {
    "id": "merchant-cart-clash",
    "maxPoint": 10,
    "name": "skill.merchant.cart-clash-name",
    "detail": "skill.merchant.cart-clash-detail",
    "note": "skill.merchant.cart-clash-note",
    "prereqSkill": [
      {
        "id": "merchant-cart-revolution",
        "minPoint": 1
      }
    ],
    "level": [
      {
        "lv": 1,
        "detailValues": []
      },
      {
        "lv": 2,
        "detailValues": []
      },
      {
        "lv": 3,
        "detailValues": []
      },
      {
        "lv": 4,
        "detailValues": []
      },
      {
        "lv": 5,
        "detailValues": []
      },
      {
        "lv": 6,
        "detailValues": []
      },
      {
        "lv": 7,
        "detailValues": []
      },
      {
        "lv": 8,
        "detailValues": []
      },
      {
        "lv": 9,
        "detailValues": []
      },
      {
        "lv": 10,
        "detailValues": []
      }
    ]
  },
  {
    "id": "merchant-cart-modification",
    "maxPoint": 10,
    "name": "skill.merchant.cart-modification-name",
    "detail": "skill.merchant.cart-modification-detail",
    "note": "skill.merchant.cart-modification-note",
    "level": [
      {
        "lv": 1,
        "detailValues": []
      },
      {
        "lv": 2,
        "detailValues": []
      },
      {
        "lv": 3,
        "detailValues": []
      },
      {
        "lv": 4,
        "detailValues": []
      },
      {
        "lv": 5,
        "detailValues": []
      },
      {
        "lv": 6,
        "detailValues": []
      },
      {
        "lv": 7,
        "detailValues": []
      },
      {
        "lv": 8,
        "detailValues": []
      },
      {
        "lv": 9,
        "detailValues": []
      },
      {
        "lv": 10,
        "detailValues": []
      }
    ]
  },
  {
    "id": "merchant-overcharge",
    "maxPoint": 10,
    "name": "skill.merchant.overcharge-name",
    "detail": "skill.merchant.overcharge-detail",
    "note": "skill.merchant.overcharge-note",
    "prereqSkill": [
      {
        "id": "merchant-discount",
        "minPoint": 1
      }
    ],
    "level": [
      {
        "lv": 1,
        "detailValues": []
      },
      {
        "lv": 2,
        "detailValues": []
      },
      {
        "lv": 3,
        "detailValues": []
      },
      {
        "lv": 4,
        "detailValues": []
      },
      {
        "lv": 5,
        "detailValues": []
      },
      {
        "lv": 6,
        "detailValues": []
      },
      {
        "lv": 7,
        "detailValues": []
      },
      {
        "lv": 8,
        "detailValues": []
      },
      {
        "lv": 9,
        "detailValues": []
      },
      {
        "lv": 10,
        "detailValues": []
      }
    ]
  }
]
